<?xml version="1.0" encoding="UTF-8"?>
<svg width="468px" height="240px" viewBox="0 0 468 240" version="1.1" xmlns="http://www.w3.org/2000/svg" xmlns:xlink="http://www.w3.org/1999/xlink">
    <!-- Generator: Sketch 46 (44423) - http://www.bohemiancoding.com/sketch -->
    <title>Logo</title>
    <desc>Created with Sketch.</desc>
    <defs></defs>
    <g id="Page-1" stroke="none" stroke-width="1" fill="none" fill-rule="evenodd">
        <g id="Logo">
            <path d="M38.7202,122.6204 C39.1242,131.4964 44.7702,134.3164 53.2422,134.3164 C59.2922,134.3164 65.3422,132.3044 65.3422,126.6504 C65.3422,119.7924 54.4542,118.5904 43.5582,115.3584 C32.6702,112.1364 21.3782,107.2904 21.3782,93.5744 C21.3782,77.0424 38.3162,70.5884 52.4342,70.5884 C67.7662,70.5884 82.6822,77.8504 83.0862,95.1904 L63.3222,95.1904 C63.7262,88.3324 57.2722,85.9184 51.2242,85.9184 C46.7902,85.9184 41.5482,87.5264 41.5482,92.3724 C41.5482,98.4224 52.4342,99.2204 63.7262,102.4524 C74.6222,105.6824 85.9142,110.5204 85.9142,124.2364 C85.9142,143.5964 69.3722,149.6464 52.8382,149.6464 C35.4882,149.6464 19.7642,141.9804 19.7642,122.6204 L38.7202,122.6204 Z" id="Fill-1" fill="#000000"></path>
            <polygon id="Fill-3" fill="#000000" points="221.8468 89.1412 198.8508 89.1412 198.8508 148.4352 179.0868 148.4352 179.0868 89.1412 156.5028 89.1412 156.5028 72.2032 221.8468 72.2032"></polygon>
            <polygon id="Fill-5" fill="#000000" points="56.4662 162.5578 43.1562 213.3778 42.7602 213.3778 29.4402 162.5578 0.4042 162.5578 0.0002 238.7878 18.5522 238.7878 18.5522 181.1098 18.9562 181.1098 35.0942 238.7878 50.4262 238.7878 66.5462 181.1098 66.9502 181.1098 66.9502 238.7878 85.5122 238.7878 85.5122 162.5578"></polygon>
            <polygon id="Fill-7" fill="#000000" points="157.307 162.5578 157.307 179.4958 179.899 179.4958 179.899 238.7878 199.663 238.7878 199.663 179.4958 222.247 179.4958 222.651 162.5578"></polygon>
            <polygon id="Fill-9" fill="#000000" points="299.694 238.788 319.458 238.788 319.458 162.558 299.694 162.558"></polygon>
            <path d="M378.3522,189.5792 C377.1402,181.9132 371.4942,177.8832 363.0222,177.8832 C350.1142,177.8832 345.2762,189.1752 345.2762,200.4672 C345.2762,211.7672 350.1142,223.0592 363.0222,223.0592 C372.3022,223.0592 377.5442,217.8172 378.3522,208.9392 L398.1162,208.9392 C396.9042,228.7052 382.7862,239.9952 363.4262,239.9952 C340.4382,239.9952 325.5122,222.2512 325.5122,200.4672 C325.5122,178.2872 340.4382,160.9372 363.4262,160.9372 C379.9682,160.9372 397.7122,171.4312 398.1162,189.5792 L378.3522,189.5792 Z" id="Fill-11" fill="#000000"></path>
            <path d="M419.8988,212.9742 C420.3028,221.8502 425.9488,224.6702 434.4208,224.6702 C440.4708,224.6702 446.5208,222.6582 446.5208,217.0042 C446.5208,210.1462 435.6328,208.9442 424.7368,205.7122 C413.8488,202.4902 402.5568,197.6442 402.5568,183.9282 C402.5568,167.3962 419.4948,160.9422 433.6128,160.9422 C448.9448,160.9422 463.8608,168.2042 464.2648,185.5442 L444.5008,185.5442 C444.9048,178.6862 438.4508,176.2642 432.4028,176.2642 C427.9688,176.2642 422.7268,177.8802 422.7268,182.7262 C422.7268,188.7762 433.6128,189.5742 444.9048,192.8062 C455.8008,196.0362 467.0928,200.8742 467.0928,214.5902 C467.0928,233.9502 450.5508,240.0002 434.0168,240.0002 C416.6768,240.0002 400.9428,232.3342 400.9428,212.9742 L419.8988,212.9742 Z" id="Fill-12" fill="#000000"></path>
            <polygon id="Fill-13" fill="#0094D9" points="110.5178 0 110.5178 18.552 152.0658 29.44 152.0658 12.908"></polygon>
            <polygon id="Fill-14" fill="#0094D9" points="152.0652 59.6964 152.0652 42.7584 110.5172 33.0744 110.5172 51.6264"></polygon>
            <polygon id="Fill-15" fill="#00BFF2" points="110.5178 0 91.5618 12.908 91.5618 29.44 110.5178 18.552"></polygon>
            <polygon id="Fill-16" fill="#00BFF2" points="91.5602 59.6964 110.5162 51.6264 110.5162 33.0744 91.5602 42.7584"></polygon>
            <polygon id="Fill-17" fill="#000000" points="152.0652 89.1412 152.0652 72.2032 110.5172 65.7512 110.5172 83.8992"></polygon>
            <polygon id="Fill-18" fill="#000000" points="152.0652 119.3938 152.0652 102.4558 110.5172 98.4178 110.5172 116.5658"></polygon>
            <polygon id="Fill-19" fill="#000000" points="152.0652 149.2432 152.0652 132.7012 110.5172 130.6912 110.5172 148.4352"></polygon>
            <polygon id="Fill-20" fill="#000000" points="110.514 209.34 152.062 209.34 152.062 192.402 110.514 192.402"></polygon>
            <polygon id="Fill-21" fill="#000000" points="110.514 179.496 152.062 179.496 152.062 162.558 110.514 162.558"></polygon>
            <polygon id="Fill-22" fill="#000000" points="110.514 238.788 152.062 238.788 152.062 221.842 110.514 221.842"></polygon>
            <polygon id="Fill-23" fill="#666669" points="91.5602 89.1412 110.5162 83.8992 110.5162 65.7512 91.5602 72.2032"></polygon>
            <polygon id="Fill-24" fill="#666669" points="91.5602 119.3938 110.5162 116.5658 110.5162 98.4178 91.5602 102.4558"></polygon>
            <polygon id="Fill-25" fill="#666669" points="91.5602 149.2432 110.5162 148.4352 110.5162 130.6912 91.5602 132.7012"></polygon>
            <polygon id="Fill-26" fill="#666669" points="91.558 209.34 110.514 209.34 110.514 192.402 91.558 192.402"></polygon>
            <polygon id="Fill-27" fill="#666669" points="91.558 179.496 110.514 179.496 110.514 162.558 91.558 162.558"></polygon>
            <polygon id="Fill-28" fill="#666669" points="91.558 238.788 110.514 238.788 110.514 221.842 91.558 221.842"></polygon>
            <path d="M294.049,238.7892 L275.901,209.3392 C285.979,205.7132 292.029,197.2412 292.029,186.7572 C292.029,173.8492 282.353,163.3572 267.831,162.5492 L266.619,162.5492 L227.899,162.5492 L227.899,238.7892 L247.663,238.7892 L247.663,210.9552 L255.731,210.9552 L272.265,238.7892 L294.049,238.7892 Z M247.259,178.2832 L262.993,178.2832 C268.639,178.2832 273.073,180.7072 273.073,186.3532 C273.073,191.9992 269.851,195.2292 263.801,195.2292 L247.259,195.2292 L247.259,178.2832 Z" id="Fill-29" fill="#000000"></path>
        </g>
    </g>
</svg>